ABRicate: reduce coverage intervals
…
On the ABRicate data

Visualize

ABRicate data

Read in the data and take a look.

library(tidyverse)
ab <- read_tsv("abricate-results.tsv")
ab

## # A tibble: 196 x 12
##    `#FILE` SEQUENCE START   END GENE  COVERAGE COVERAGE_MAP GAPS 
##    <chr>   <chr>    <int> <int> <chr> <chr>    <chr>        <chr>
##  1 /data/ k119_10  5352  5530 vat( 346-524 .......=/== 2-Feb
##  2 /data/ k119_11   600   728 car( 562-690 ....==../.. 4-Feb
##  3 /data/ k119_12 56449 57945 lsa( 1-1497/ =========== 0/0  
##  4 /data/ k119_12 13306 13950 blaO 123-767 ..======/== 2-Feb
##  5 /data/ k119_17     3   487 blaO 283-767 ....====/== 2-Feb
##  6 /data/ k119_19   252   395 blaO 655-798 ......../.. 2-Feb
##  7 /data/ k119_27  2082  2203 aph( 454-575 ........=== 0/0  
##  8 /data/ k119_34  5462  6064 vat( 1-603/6 ========/== 4-Feb
##  9 /data/ k119_39 13273 13381 oqxB 1168-12 .....==.... 0/0  
## 10 /data/ k119_87   223   391 msr( 1296-14 ........... 0/0  
## # ... with 186 more rows, and 4 more variables: `%COVERAGE` <dbl>,
## #   `%IDENTITY` <dbl>, DATABASE <chr>, ACCESSION <chr>
…
Separate the new range into start and end by the -

Make those three new variables integers.

ab2 <- ab %>% 
  janitor::clean_names() %>% 
  select(file=number_file, gene, accession, coverage) %>% 
  mutate(file=file %>% str_remove("/data/SRR606249_") %>% str_remove_all("1\\.|\\.fq\\.gz|_output.*")) %>% 
  separate(coverage, into=c("range", "length"), sep="/") %>% 
  separate(range, into=c("start", "end"), sep="-", remove=FALSE) %>% 
  mutate_at(vars(start, end, length), as.integer)
ab2

## # A tibble: 196 x 7
##    file          gene         accession range     start   end length
##    <chr>         <chr>        <chr>     <chr>     <int> <int>  <int>
##  1 trim2_megahit vat(A)_1     L07778    346-524     346   524    660
##  2 trim2_megahit car(A)_1     M80346    562-690     562   690   1656
##  3 trim2_megahit lsa(A)_2     AY58982   1-1497        1  1497   1497
##  4 trim2_megahit blaOXA-181_1 HM992946  123-767     123   767    798
##  5 trim2_megahit blaOXA-181_1 HM992946  283-767     283   767    798
##  6 trim2_megahit blaOXA-48_2  AY236073  655-798     655   798    798
##  7 trim2_megahit aph(6)-Ic_1  X01702    454-575     454   575    801
##  8 trim2_megahit vat(B)_1     U19459    1-603         1   603    639
##  9 trim2_megahit oqxB_1       EU370913  1168-1276  1168  1276   3153
## 10 trim2_megahit msr(D)_2     AF274302  1296-1464  1296  1464   1464
## # ... with 186 more rows
…
On all the data:

ab2 %>% parsefilename

## # A tibble: 196 x 10
##    file   dataset trim  assembler gene  accession range start   end length
##    <chr>  <chr>   <chr> <chr>     <chr> <chr>     <chr> <int> <int>  <int>
##  1 trim2 full    trim2 megahit   vat( L07778    346-   346   524    660
##  2 trim2 full    trim2 megahit   car( M80346    562-   562   690   1656
##  3 trim2 full    trim2 megahit   lsa( AY58982   1-14     1  1497   1497
##  4 trim2 full    trim2 megahit   blaO HM992946  123-   123   767    798
##  5 trim2 full    trim2 megahit   blaO HM992946  283-   283   767    798
##  6 trim2 full    trim2 megahit   blaO AY236073  655-   655   798    798
##  7 trim2 full    trim2 megahit   aph( X01702    454-   454   575    801
##  8 trim2 full    trim2 megahit   vat( U19459    1-603     1   603    639
##  9 trim2 full    trim2 megahit   oqxB EU370913  1168  1168  1276   3153
## 10 trim2 full    trim2 megahit   msr( AF274302  1296  1296  1464   1464
## # ... with 186 more rows
…
Parse the filename using the function above.

abreduced <- abreduced %>% parsefilename()
abreduced

## # A tibble: 145 x 10
##    file  dataset trim  assembler gene  length ranges nranges coverage
##    <chr> <chr>   <chr> <chr>     <chr>  <int> <chr>    <int>    <int>
##  1 subs subset trim2 megahit   catB    639 12-433       1      422
##  2 subs subset trim2 megahit   cepA    903 686-8       1      208
##  3 subs subset trim2 megahit   lsa(   1497 1-343       3      789
##  4 subs subset trim2 megahit   oqxB   3153 987-1       2      683
##  5 subs subset trim2 megahit   vat(    660 346-5       1      179
##  6 subs subset trim2 spades    blaO    798 458-7       1      341
##  7 subs subset trim2 spades    car(   1656 562-6       1      129
##  8 subs subset trim2 spades    catB    639 12-433       1      422
##  9 subs subset trim2 spades    cepA    903 640-8       1      254
## 10 subs subset trim2 spades    lsa(   1497 1-671       3     1200
## # ... with 135 more rows, and 1 more variable: pct_coverage <dbl>
…
